graph TD;
    v0["v0=x0"]-- 2v0 -->v2["v2=(^2)"];
    v1["v1=x1"]-- 2v1 -->v3["v3=(^2)"];

    v2-- 1 -->v4["v4=(+) - 1"];
    v3-- 1 -->v4;

    v0-- cos -->v5["v5=(sin)"]
    v1-- 1 -->v6["v6=(-1*)"]

    v5-- 1 -->v7["v7=(+)"];
    v6-- 1 -->v7;
