graph TD;
    c --> v0 & v1 & v2 & v3
    v0["v0=ν"]:::in-- v5 -->v6;
    v1["v1=γ"]:::in-- 1 -->v7;
    v1["v1=γ"]:::in-- v8 -->v9;
    v2["v2=ω"]:::in-- v3 -->v4;
    v3["v3=t"]:::in-- v2 -->v4;

    v4["v4[*]"]-- "1/[cos(v4)*cos(v4)]" -->v5;
    v5["v5[tan]"]-- v0 -->v6;
    v5-- "-1" -->v7;
    v6["v6[*]"]-- 1/v7 -->v8;
    v7["v7[-]"]-- "-v6/[v7*v7]" -->v8;

    v8["v8[/]"]:::out-- v1 --> v9;
    v9["v9=*"]:::out;

    classDef in  fill:#77ACA2
    classDef out fill:#F4E9CD
